SINGLE_CYCLE/mips-master/cpu.vcd
$date
  Mon Dec 15 18:41:14 2025
$end
$version
  GHDL v0
$end
$timescale
  1 fs
$end
$scope module standard $end
$upscope $end
$scope module textio $end
$upscope $end
$scope module std_logic_1164 $end
$upscope $end
$scope module numeric_std $end
$upscope $end
$scope module std_logic_arith $end
$upscope $end
$scope module std_logic_unsigned $end
$upscope $end
$scope module mips_tb $end
$var reg 1 ! clk $end
$var reg 1 " reset $end
$var reg 1 # memwrite $end
$var reg 32 $ readdata[31:0] $end
$var reg 32 % address[31:0] $end
$var reg 32 & writedata[31:0] $end
$comment data_mem is not handled $end
$scope module uut $end
$var reg 1 ' clk $end
$var reg 1 ( reset $end
$var reg 1 ) memwrite $end
$var reg 32 * readdata[31:0] $end
$var reg 32 + address[31:0] $end
$var reg 32 , writedata[31:0] $end
$var reg 1 - memtoreg $end
$var reg 1 . branch $end
$var reg 1 / alusrc $end
$var reg 1 0 regdst $end
$var reg 1 1 regwrite $end
$var reg 1 2 jump $end
$var reg 1 3 zero $end
$var reg 3 4 aluctrl[2:0] $end
$var reg 1 5 rst_pc $end
$var reg 32 6 pc_in[31:0] $end
$var reg 32 7 pc_out[31:0] $end
$var reg 32 8 instr[31:0] $end
$var reg 32 9 pc_out_next[31:0] $end
$var reg 5 : sal_rt_o_rd[4:0] $end
$var reg 32 ; srca[31:0] $end
$var reg 32 < srcb[31:0] $end
$var reg 32 = rd2[31:0] $end
$var reg 32 > alu_result[31:0] $end
$var reg 32 ? extsig_out[31:0] $end
$var reg 32 @ despl_out[31:0] $end
$var reg 32 A pc_branch[31:0] $end
$var reg 32 B result_mem[31:0] $end
$var reg 32 C addr32[31:0] $end
$var reg 32 D addr32_corri[31:0] $end
$var reg 32 E addr32_pc_next[31:0] $end
$var reg 32 F pc_next_j[31:0] $end
$var reg 1 G pcsrc $end
$scope module inst_controlunit $end
$var reg 6 H opcode[5:0] $end
$var reg 6 I funct[5:0] $end
$var reg 1 J memtoreg $end
$var reg 1 K memwrite $end
$var reg 1 L branch $end
$var reg 1 M alusrc $end
$var reg 1 N regdst $end
$var reg 1 O regwrite $end
$var reg 1 P jump $end
$var reg 3 Q aluctrl[2:0] $end
$var reg 2 R opalu[1:0] $end
$scope module inst_maindecoder $end
$var reg 6 S opcode[5:0] $end
$var reg 1 T regwrite $end
$var reg 1 U regdst $end
$var reg 1 V alusrc $end
$var reg 1 W branch $end
$var reg 1 X memwrite $end
$var reg 1 Y memtoreg $end
$var reg 2 Z aluop[1:0] $end
$var reg 1 [ jump $end
$var reg 9 \ controls[8:0] $end
$upscope $end
$scope module inst_aludecoder $end
$var reg 2 ] aluop[1:0] $end
$var reg 6 ^ funct[5:0] $end
$var reg 3 _ aluctrl[2:0] $end
$upscope $end
$upscope $end
$scope module inst_pc $end
$var reg 1 ` clk $end
$var reg 1 a reset $end
$var reg 32 b din[31:0] $end
$var reg 32 c dout[31:0] $end
$upscope $end
$scope module inst_instruction_memory $end
$var reg 32 d dir[31:0] $end
$var reg 32 e instr[31:0] $end
$upscope $end
$scope module alu_suma_4 $end
$var reg 32 f a[31:0] $end
$var reg 32 g b[31:0] $end
$var reg 32 h sal[31:0] $end
$upscope $end
$scope module inst_mux_rt_o_rd $end
$var reg 1 i ctrl $end
$var reg 5 j a[4:0] $end
$var reg 5 k b[4:0] $end
$var reg 5 l sal[4:0] $end
$upscope $end
$scope module inst_register_file $end
$var reg 1 m clk $end
$var reg 1 n we3 $end
$var reg 5 o a1[4:0] $end
$var reg 5 p a2[4:0] $end
$var reg 5 q a3[4:0] $end
$var reg 32 r rd1[31:0] $end
$var reg 32 s rd2[31:0] $end
$var reg 32 t wd3[31:0] $end
$comment ram is not handled $end
$upscope $end
$scope module inst_alu $end
$var reg 32 u a[31:0] $end
$var reg 32 v b[31:0] $end
$var reg 3 w func[2:0] $end
$var reg 1 x zero $end
$var reg 32 y rslt[31:0] $end
$var reg 32 z rslt_and[31:0] $end
$var reg 32 { rslt_or[31:0] $end
$var reg 32 | rslt_and_compl[31:0] $end
$var reg 32 } rslt_mux_alu[31:0] $end
$var reg 32 !" rslt_or_compl[31:0] $end
$var reg 32 "" rslt_slt[31:0] $end
$var reg 32 #" bb[31:0] $end
$var reg 32 $" b_compl[31:0] $end
$var reg 32 %" rslt_sum_res[31:0] $end
$scope module mux_b_b_compl $end
$var reg 1 &" ctrl $end
$var reg 32 '" a[31:0] $end
$var reg 32 (" b[31:0] $end
$var reg 32 )" o[31:0] $end
$upscope $end
$scope module inst_alu_sum_res $end
$var reg 1 *" ctrl $end
$var reg 32 +" a[31:0] $end
$var reg 32 ," b[31:0] $end
$var reg 32 -" sol[31:0] $end
$var reg 1 ." cout $end
$var reg 33 /" result[32:0] $end
$upscope $end
$scope module inst_zero_extend $end
$var reg 1 0" inic $end
$var reg 32 1" extend[31:0] $end
$upscope $end
$scope module mux_rslt_alu $end
$var reg 2 2" ctrl[1:0] $end
$var reg 32 3" a[31:0] $end
$var reg 32 4" b[31:0] $end
$var reg 32 5" c[31:0] $end
$var reg 32 6" d[31:0] $end
$var reg 32 7" sal[31:0] $end
$upscope $end
$upscope $end
$scope module inst_signextend $end
$var reg 16 8" din[15:0] $end
$var reg 32 9" dout[31:0] $end
$upscope $end
$scope module inst_mux_extsign_o_red2 $end
$var reg 1 :" ctrl $end
$var reg 32 ;" a[31:0] $end
$var reg 32 <" b[31:0] $end
$var reg 32 =" o[31:0] $end
$upscope $end
$scope module inst_corrimiento $end
$var reg 32 >" din[31:0] $end
$var reg 32 ?" dout[31:0] $end
$upscope $end
$scope module alu_suma_desplaz $end
$var reg 32 @" a[31:0] $end
$var reg 32 A" b[31:0] $end
$var reg 32 B" sal[31:0] $end
$upscope $end
$scope module inst2_mux_2to1_32b $end
$var reg 1 C" ctrl $end
$var reg 32 D" a[31:0] $end
$var reg 32 E" b[31:0] $end
$var reg 32 F" o[31:0] $end
$upscope $end
$scope module inst3_mux_2to1_32b $end
$var reg 1 G" ctrl $end
$var reg 32 H" a[31:0] $end
$var reg 32 I" b[31:0] $end
$var reg 32 J" o[31:0] $end
$upscope $end
$scope module mux_instru_j $end
$var reg 1 K" ctrl $end
$var reg 32 L" a[31:0] $end
$var reg 32 M" b[31:0] $end
$var reg 32 N" o[31:0] $end
$upscope $end
$upscope $end
$upscope $end
$enddefinitions $end
#0
0!
1"
0#
b00000000000000000000000000000000 $
b00000000000000000000000000000110 %
bUUUUUUUUUUUUUUUUUUUUUUUUUUUUUUUU &
0'
1(
0)
b00000000000000000000000000000000 *
b00000000000000000000000000000110 +
bUUUUUUUUUUUUUUUUUUUUUUUUUUUUUUUU ,
0-
0.
1/
00
11
02
03
b010 4
U5
b00000000000000000000000000000100 6
b00000000000000000000000000000000 7
b00100000000100010000000000000110 8
b00000000000000000000000000000100 9
b10001 :
b00000000000000000000000000000000 ;
b00000000000000000000000000000110 <
bUUUUUUUUUUUUUUUUUUUUUUUUUUUUUUUU =
b00000000000000000000000000000110 >
b00000000000000000000000000000110 ?
b00000000000000000000000000011000 @
b00000000000000000000000000011100 A
b00000000000000000000000000000110 B
bUUUUUUUUUUUUUUUUUUUUUUUUUUUUUUUU C
bUUUUUUUUUUUUUUUUUUUUUUUUUUUUUUUU D
b00000000010001000000000000011000 E
b00000000000000000000000000000100 F
0G
b001000 H
b000110 I
0J
0K
0L
1M
0N
1O
0P
b010 Q
b00 R
b001000 S
1T
0U
1V
0W
0X
0Y
b00 Z
0[
b101000000 \
b00 ]
b000110 ^
b010 _
0`
1a
b00000000000000000000000000000100 b
b00000000000000000000000000000000 c
b00000000000000000000000000000000 d
b00100000000100010000000000000110 e
b00000000000000000000000000000000 f
b00000000000000000000000000000100 g
b00000000000000000000000000000100 h
0i
b10001 j
b00000 k
b10001 l
0m
1n
b00000 o
b10001 p
b10001 q
b00000000000000000000000000000000 r
bUUUUUUUUUUUUUUUUUUUUUUUUUUUUUUUU s
b00000000000000000000000000000110 t
b00000000000000000000000000000000 u
b00000000000000000000000000000110 v
b010 w
0x
b00000000000000000000000000000110 y
b00000000000000000000000000000000 z
b00000000000000000000000000000110 {
b00000000000000000000000000000000 |
b00000000000000000000000000000110 }
b00000000000000000000000000000000 !"
b00000000000000000000000000000000 ""
b00000000000000000000000000000110 #"
b11111111111111111111111111111001 $"
b00000000000000000000000000000110 %"
0&"
b00000000000000000000000000000110 '"
b11111111111111111111111111111001 ("
b00000000000000000000000000000110 )"
0*"
b00000000000000000000000000000000 +"
b00000000000000000000000000000110 ,"
b00000000000000000000000000000110 -"
0."
b000000000000000000000000000000110 /"
00"
b00000000000000000000000000000000 1"
b10 2"
b00000000000000000000000000000000 3"
b00000000000000000000000000000110 4"
b00000000000000000000000000000110 5"
b00000000000000000000000000000000 6"
b00000000000000000000000000000110 7"
b0000000000000110 8"
b00000000000000000000000000000110 9"
1:"
bUUUUUUUUUUUUUUUUUUUUUUUUUUUUUUUU ;"
b00000000000000000000000000000110 <"
b00000000000000000000000000000110 ="
b00000000000000000000000000000110 >"
b00000000000000000000000000011000 ?"
b00000000000000000000000000011000 @"
b00000000000000000000000000000100 A"
b00000000000000000000000000011100 B"
0C"
b00000000000000000000000000000100 D"
b00000000000000000000000000011100 E"
b00000000000000000000000000000100 F"
0G"
b00000000000000000000000000000110 H"
b00000000000000000000000000000000 I"
b00000000000000000000000000000110 J"
0K"
b00000000000000000000000000000100 L"
b00000000010001000000000000011000 M"
b00000000000000000000000000000100 N"
#10000000
1!
1'
1`
1m
#20000000
0!
0'
0`
0m
#30000000
1!
1'
1`
1m
#40000000
0!
0"
0'
0(
0`
0a
0m
#50000000
1!
b00000000000000000000000000000100 %
1'
b00000000000000000000000000000100 +
b00000000000000000000000000001000 6
b00000000000000000000000000000100 7
b00100000000100100000000000000100 8
b00000000000000000000000000001000 9
b10010 :
b00000000000000000000000000000100 <
b00000000000000000000000000000100 >
b00000000000000000000000000000100 ?
b00000000000000000000000000010000 @
b00000000000000000000000000011000 A
b00000000000000000000000000000100 B
b00000000010010000000000000010000 E
b00000000000000000000000000001000 F
b000100 I
b000100 ^
1`
b00000000000000000000000000001000 b
b00000000000000000000000000000100 c
b00000000000000000000000000000100 d
b00100000000100100000000000000100 e
b00000000000000000000000000000100 f
b00000000000000000000000000001000 h
b10010 j
b10010 l
1m
b10010 p
b10010 q
b00000000000000000000000000000100 t
b00000000000000000000000000000100 v
b00000000000000000000000000000100 y
b00000000000000000000000000000100 {
b00000000000000000000000000000100 }
b00000000000000000000000000000100 #"
b11111111111111111111111111111011 $"
b00000000000000000000000000000100 %"
b00000000000000000000000000000100 '"
b11111111111111111111111111111011 ("
b00000000000000000000000000000100 )"
b00000000000000000000000000000100 ,"
b00000000000000000000000000000100 -"
b000000000000000000000000000000100 /"
b00000000000000000000000000000100 4"
b00000000000000000000000000000100 5"
b00000000000000000000000000000100 7"
b0000000000000100 8"
b00000000000000000000000000000100 9"
b00000000000000000000000000000100 <"
b00000000000000000000000000000100 ="
b00000000000000000000000000000100 >"
b00000000000000000000000000010000 ?"
b00000000000000000000000000010000 @"
b00000000000000000000000000001000 A"
b00000000000000000000000000011000 B"
b00000000000000000000000000001000 D"
b00000000000000000000000000011000 E"
b00000000000000000000000000001000 F"
b00000000000000000000000000000100 H"
b00000000000000000000000000000100 J"
b00000000000000000000000000001000 L"
b00000000010010000000000000010000 M"
b00000000000000000000000000001000 N"
#60000000
0!
0'
0`
0m
#70000000
1!
b00000000000000000000000000000000 %
1'
b00000000000000000000000000000000 +
13
b00000000000000000000000000001100 6
b00000000000000000000000000001000 7
b00100000000100000000000000000000 8
b00000000000000000000000000001100 9
b10000 :
b00000000000000000000000000000000 <
b00000000000000000000000000000000 >
b00000000000000000000000000000000 ?
b00000000000000000000000000000000 @
b00000000000000000000000000001100 A
b00000000000000000000000000000000 B
b00000000010000000000000000000000 E
b00000000000000000000000000001100 F
b000000 I
b000000 ^
1`
b00000000000000000000000000001100 b
b00000000000000000000000000001000 c
b00000000000000000000000000001000 d
b00100000000100000000000000000000 e
b00000000000000000000000000001000 f
b00000000000000000000000000001100 h
b10000 j
b10000 l
1m
b10000 p
b10000 q
b00000000000000000000000000000000 t
b00000000000000000000000000000000 v
1x
b00000000000000000000000000000000 y
b00000000000000000000000000000000 {
b00000000000000000000000000000000 }
b00000000000000000000000000000000 #"
b11111111111111111111111111111111 $"
b00000000000000000000000000000000 %"
b00000000000000000000000000000000 '"
b11111111111111111111111111111111 ("
b00000000000000000000000000000000 )"
b00000000000000000000000000000000 ,"
b00000000000000000000000000000000 -"
b000000000000000000000000000000000 /"
b00000000000000000000000000000000 4"
b00000000000000000000000000000000 5"
b00000000000000000000000000000000 7"
b0000000000000000 8"
b00000000000000000000000000000000 9"
b00000000000000000000000000000000 <"
b00000000000000000000000000000000 ="
b00000000000000000000000000000000 >"
b00000000000000000000000000000000 ?"
b00000000000000000000000000000000 @"
b00000000000000000000000000001100 A"
b00000000000000000000000000001100 B"
b00000000000000000000000000001100 D"
b00000000000000000000000000001100 E"
b00000000000000000000000000001100 F"
b00000000000000000000000000000000 H"
b00000000000000000000000000000000 J"
b00000000000000000000000000001100 L"
b00000000010000000000000000000000 M"
b00000000000000000000000000001100 N"
#80000000
0!
0'
0`
0m
#90000000
1!
1'
b00000000000000000000000000010000 6
b00000000000000000000000000001100 7
b00100000000100110000000000000000 8
b00000000000000000000000000010000 9
b10011 :
b00000000000000000000000000010000 A
b00000000010011000000000000000000 E
b00000000000000000000000000010000 F
1`
b00000000000000000000000000010000 b
b00000000000000000000000000001100 c
b00000000000000000000000000001100 d
b00100000000100110000000000000000 e
b00000000000000000000000000001100 f
b00000000000000000000000000010000 h
b10011 j
b10011 l
1m
b10011 p
b10011 q
b00000000000000000000000000010000 A"
b00000000000000000000000000010000 B"
b00000000000000000000000000010000 D"
b00000000000000000000000000010000 E"
b00000000000000000000000000010000 F"
b00000000000000000000000000010000 L"
b00000000010011000000000000000000 M"
b00000000000000000000000000010000 N"
#100000000
0!
0'
0`
0m
#110000000
1!
b11111111111111111111111111111010 %
b00000000000000000000000000000110 &
1'
b11111111111111111111111111111010 +
b00000000000000000000000000000110 ,
1.
0/
01
03
b110 4
b00000000000000000000000000010100 6
b00000000000000000000000000010000 7
b00010010000100010000000000000011 8
b00000000000000000000000000010100 9
b10001 :
b00000000000000000000000000000110 <
b00000000000000000000000000000110 =
b11111111111111111111111111111010 >
b00000000000000000000000000000011 ?
b00000000000000000000000000001100 @
b00000000000000000000000000100000 A
b11111111111111111111111111111010 B
b00001000010001000000000000001100 E
b00000000000000000000000000010100 F
0G
b000100 H
b000011 I
1L
0M
0O
b110 Q
b01 R
b000100 S
0T
0V
1W
b01 Z
b000100001 \
b01 ]
b000011 ^
b110 _
1`
b00000000000000000000000000010100 b
b00000000000000000000000000010000 c
b00000000000000000000000000010000 d
b00010010000100010000000000000011 e
b00000000000000000000000000010000 f
b00000000000000000000000000010100 h
b10001 j
b10001 l
1m
0n
b10000 o
b10001 p
b10001 q
b00000000000000000000000000000110 s
b11111111111111111111111111111010 t
b00000000000000000000000000000110 v
b110 w
0x
b11111111111111111111111111111010 y
b11111111111111111111111111111001 {
b11111111111111111111111111111010 }
b00000000000000000000000000000001 ""
b11111111111111111111111111111001 #"
b11111111111111111111111111111001 $"
b11111111111111111111111111111010 %"
1&"
b00000000000000000000000000000110 '"
b11111111111111111111111111111001 ("
b11111111111111111111111111111001 )"
1*"
b11111111111111111111111111111001 ,"
b11111111111111111111111111111010 -"
b011111111111111111111111111111010 /"
10"
b00000000000000000000000000000001 1"
b11111111111111111111111111111001 4"
b11111111111111111111111111111010 5"
b00000000000000000000000000000001 6"
b11111111111111111111111111111010 7"
b0000000000000011 8"
b00000000000000000000000000000011 9"
0:"
b00000000000000000000000000000110 ;"
b00000000000000000000000000000011 <"
b00000000000000000000000000000110 ="
b00000000000000000000000000000011 >"
b00000000000000000000000000001100 ?"
b00000000000000000000000000001100 @"
b00000000000000000000000000010100 A"
b00000000000000000000000000100000 B"
0C"
b00000000000000000000000000010100 D"
b00000000000000000000000000100000 E"
b00000000000000000000000000010100 F"
b11111111111111111111111111111010 H"
b11111111111111111111111111111010 J"
b00000000000000000000000000010100 L"
b00001000010001000000000000001100 M"
b00000000000000000000000000010100 N"
#120000000
0!
0'
0`
0m
#130000000
1!
b00000000000000000000000000000100 %
b00000000000000000000000000000100 &
1'
b00000000000000000000000000000100 +
b00000000000000000000000000000100 ,
0.
10
11
b010 4
b00000000000000000000000000011000 6
b00000000000000000000000000010100 7
b00000010011100101001100000100000 8
b00000000000000000000000000011000 9
b10011 :
b00000000000000000000000000000100 <
b00000000000000000000000000000100 =
b00000000000000000000000000000100 >
b11111111111111111001100000100000 ?
b11111111111111100110000010000000 @
b11111111111111100110000010011000 A
b00000000000000000000000000000100 B
b00001001110010100110000010000000 E
b00000000000000000000000000011000 F
b000000 H
b100000 I
0L
1N
1O
b010 Q
b10 R
b000000 S
1T
1U
0W
b10 Z
b110000010 \
b10 ]
b100000 ^
b010 _
1`
b00000000000000000000000000011000 b
b00000000000000000000000000010100 c
b00000000000000000000000000010100 d
b00000010011100101001100000100000 e
b00000000000000000000000000010100 f
b00000000000000000000000000011000 h
1i
b10010 j
b10011 k
b10011 l
1m
1n
b10011 o
b10010 p
b10011 q
b00000000000000000000000000000100 s
b00000000000000000000000000000100 t
b00000000000000000000000000000100 v
b010 w
b00000000000000000000000000000100 y
b00000000000000000000000000000100 {
b00000000000000000000000000000100 }
b00000000000000000000000000000000 ""
b00000000000000000000000000000100 #"
b11111111111111111111111111111011 $"
b00000000000000000000000000000100 %"
0&"
b00000000000000000000000000000100 '"
b11111111111111111111111111111011 ("
b00000000000000000000000000000100 )"
0*"
b00000000000000000000000000000100 ,"
b00000000000000000000000000000100 -"
b000000000000000000000000000000100 /"
00"
b00000000000000000000000000000000 1"
b00000000000000000000000000000100 4"
b00000000000000000000000000000100 5"
b00000000000000000000000000000000 6"
b00000000000000000000000000000100 7"
b1001100000100000 8"
b11111111111111111001100000100000 9"
b00000000000000000000000000000100 ;"
b11111111111111111001100000100000 <"
b00000000000000000000000000000100 ="
b11111111111111111001100000100000 >"
b11111111111111100110000010000000 ?"
b11111111111111100110000010000000 @"
b00000000000000000000000000011000 A"
b11111111111111100110000010011000 B"
b00000000000000000000000000011000 D"
b11111111111111100110000010011000 E"
b00000000000000000000000000011000 F"
b00000000000000000000000000000100 H"
b00000000000000000000000000000100 J"
b00000000000000000000000000011000 L"
b00001001110010100110000010000000 M"
b00000000000000000000000000011000 N"
#140000000
0!
0'
0`
0m
#150000000
1!
b00000000000000000000000000000001 %
b00000000000000000000000000000000 &
1'
b00000000000000000000000000000001 +
b00000000000000000000000000000000 ,
1/
00
03
b010 4
b00000000000000000000000000011100 6
b00000000000000000000000000011000 7
b00100010000100000000000000000001 8
b00000000000000000000000000011100 9
b10000 :
b00000000000000000000000000000001 <
b00000000000000000000000000000000 =
b00000000000000000000000000000001 >
b00000000000000000000000000000001 ?
b00000000000000000000000000000100 @
b00000000000000000000000000100000 A
b00000000000000000000000000000001 B
b00001000010000000000000000000100 E
b00000000000000000000000000011100 F
b001000 H
b000001 I
1M
0N
b010 Q
b00 R
b001000 S
0U
1V
b00 Z
b101000000 \
b00 ]
b000001 ^
b010 _
1`
b00000000000000000000000000011100 b
b00000000000000000000000000011000 c
b00000000000000000000000000011000 d
b00100010000100000000000000000001 e
b00000000000000000000000000011000 f
b00000000000000000000000000011100 h
0i
b10000 j
b00000 k
b10000 l
1m
b10000 o
b10000 p
b10000 q
b00000000000000000000000000000000 s
b00000000000000000000000000000001 t
b00000000000000000000000000000001 v
b010 w
0x
b00000000000000000000000000000001 y
b00000000000000000000000000000001 {
b00000000000000000000000000000001 }
b00000000000000000000000000000000 ""
b00000000000000000000000000000001 #"
b11111111111111111111111111111110 $"
b00000000000000000000000000000001 %"
0&"
b00000000000000000000000000000001 '"
b11111111111111111111111111111110 ("
b00000000000000000000000000000001 )"
0*"
b00000000000000000000000000000001 ,"
b00000000000000000000000000000001 -"
0."
b000000000000000000000000000000001 /"
00"
b00000000000000000000000000000000 1"
b10 2"
b00000000000000000000000000000001 4"
b00000000000000000000000000000001 5"
b00000000000000000000000000000000 6"
b00000000000000000000000000000001 7"
b0000000000000001 8"
b00000000000000000000000000000001 9"
1:"
b00000000000000000000000000000000 ;"
b00000000000000000000000000000001 <"
b00000000000000000000000000000001 ="
b00000000000000000000000000000001 >"
b00000000000000000000000000000100 ?"
b00000000000000000000000000000100 @"
b00000000000000000000000000011100 A"
b00000000000000000000000000100000 B"
b00000000000000000000000000011100 D"
b00000000000000000000000000100000 E"
b00000000000000000000000000011100 F"
b00000000000000000000000000000001 H"
b00000000000000000000000000000001 J"
b00000000000000000000000000011100 L"
b00001000010000000000000000000100 M"
b00000000000000000000000000011100 N"
#160000000
0!
0'
0`
0m
#170000000
1!
b00000000000000000000000000000000 %
1'
b00000000000000000000000000000000 +
0/
01
12
13
b00000000000000000000000000100000 6
b00000000000000000000000000011100 7
b00001000000000000000000000000100 8
b00000000000000000000000000100000 9
b00000 :
b00000000000000000000000000000000 <
b00000000000000000000000000000000 >
b00000000000000000000000000000100 ?
b00000000000000000000000000010000 @
b00000000000000000000000000110000 A
b00000000000000000000000000000000 B
b00000000000000000000000000010000 E
b00000000000000000000000000010000 F
b000010 H
b000100 I
0M
0O
1P
b000010 S
0T
0V
1[
b000000100 \
b000100 ^
1`
b00000000000000000000000000010000 b
b00000000000000000000000000011100 c
b00000000000000000000000000011100 d
b00001000000000000000000000000100 e
b00000000000000000000000000011100 f
b00000000000000000000000000100000 h
b00000 j
b00000 l
1m
0n
b00000 o
b00000 p
b00000 q
b00000000000000000000000000000000 t
b00000000000000000000000000000000 v
1x
b00000000000000000000000000000000 y
b00000000000000000000000000000000 {
b00000000000000000000000000000000 }
b00000000000000000000000000000000 #"
b11111111111111111111111111111111 $"
b00000000000000000000000000000000 %"
b00000000000000000000000000000000 '"
b11111111111111111111111111111111 ("
b00000000000000000000000000000000 )"
b00000000000000000000000000000000 ,"
b00000000000000000000000000000000 -"
b000000000000000000000000000000000 /"
b00000000000000000000000000000000 4"
b00000000000000000000000000000000 5"
b00000000000000000000000000000000 7"
b0000000000000100 8"
b00000000000000000000000000000100 9"
0:"
b00000000000000000000000000000100 <"
b00000000000000000000000000000000 ="
b00000000000000000000000000000100 >"
b00000000000000000000000000010000 ?"
b00000000000000000000000000010000 @"
b00000000000000000000000000100000 A"
b00000000000000000000000000110000 B"
b00000000000000000000000000100000 D"
b00000000000000000000000000110000 E"
b00000000000000000000000000100000 F"
b00000000000000000000000000000000 H"
b00000000000000000000000000000000 J"
1K"
b00000000000000000000000000100000 L"
b00000000000000000000000000010000 M"
b00000000000000000000000000010000 N"
#180000000
0!
0'
0`
0m
#190000000
1!
b11111111111111111111111111111011 %
b00000000000000000000000000000110 &
1'
b11111111111111111111111111111011 +
b00000000000000000000000000000110 ,
1.
02
03
b110 4
b00000000000000000000000000010100 6
b00000000000000000000000000010000 7
b00010010000100010000000000000011 8
b00000000000000000000000000010100 9
b10001 :
b00000000000000000000000000000001 ;
b00000000000000000000000000000110 <
b00000000000000000000000000000110 =
b11111111111111111111111111111011 >
b00000000000000000000000000000011 ?
b00000000000000000000000000001100 @
b00000000000000000000000000100000 A
b11111111111111111111111111111011 B
b00001000010001000000000000001100 E
b00000000000000000000000000010100 F
0G
b000100 H
b000011 I
1L
0P
b110 Q
b01 R
b000100 S
1W
b01 Z
0[
b000100001 \
b01 ]
b000011 ^
b110 _
1`
b00000000000000000000000000010100 b
b00000000000000000000000000010000 c
b00000000000000000000000000010000 d
b00010010000100010000000000000011 e
b00000000000000000000000000010000 f
b00000000000000000000000000010100 h
b10001 j
b10001 l
1m
b10000 o
b10001 p
b10001 q
b00000000000000000000000000000001 r
b00000000000000000000000000000110 s
b11111111111111111111111111111011 t
b00000000000000000000000000000001 u
b00000000000000000000000000000110 v
b110 w
0x
b11111111111111111111111111111011 y
b00000000000000000000000000000001 z
b11111111111111111111111111111001 {
b11111111111111111111111111111011 }
b00000000000000000000000000000001 ""
b11111111111111111111111111111001 #"
b11111111111111111111111111111001 $"
b11111111111111111111111111111011 %"
1&"
b00000000000000000000000000000110 '"
b11111111111111111111111111111001 ("
b11111111111111111111111111111001 )"
1*"
b00000000000000000000000000000001 +"
b11111111111111111111111111111001 ,"
b11111111111111111111111111111011 -"
b011111111111111111111111111111011 /"
10"
b00000000000000000000000000000001 1"
b00000000000000000000000000000001 3"
b11111111111111111111111111111001 4"
b11111111111111111111111111111011 5"
b00000000000000000000000000000001 6"
b11111111111111111111111111111011 7"
b0000000000000011 8"
b00000000000000000000000000000011 9"
b00000000000000000000000000000110 ;"
b00000000000000000000000000000011 <"
b00000000000000000000000000000110 ="
b00000000000000000000000000000011 >"
b00000000000000000000000000001100 ?"
b00000000000000000000000000001100 @"
b00000000000000000000000000010100 A"
b00000000000000000000000000100000 B"
0C"
b00000000000000000000000000010100 D"
b00000000000000000000000000100000 E"
b00000000000000000000000000010100 F"
b11111111111111111111111111111011 H"
b11111111111111111111111111111011 J"
0K"
b00000000000000000000000000010100 L"
b00001000010001000000000000001100 M"
b00000000000000000000000000010100 N"
#200000000
0!
0'
0`
0m
#210000000
1!
b00000000000000000000000000001000 %
b00000000000000000000000000000100 &
1'
b00000000000000000000000000001000 +
b00000000000000000000000000000100 ,
0.
10
11
b010 4
b00000000000000000000000000011000 6
b00000000000000000000000000010100 7
b00000010011100101001100000100000 8
b00000000000000000000000000011000 9
b10011 :
b00000000000000000000000000000100 ;
b00000000000000000000000000000100 <
b00000000000000000000000000000100 =
b00000000000000000000000000001000 >
b11111111111111111001100000100000 ?
b11111111111111100110000010000000 @
b11111111111111100110000010011000 A
b00000000000000000000000000001000 B
b00001001110010100110000010000000 E
b00000000000000000000000000011000 F
b000000 H
b100000 I
0L
1N
1O
b010 Q
b10 R
b000000 S
1T
1U
0W
b10 Z
b110000010 \
b10 ]
b100000 ^
b010 _
1`
b00000000000000000000000000011000 b
b00000000000000000000000000010100 c
b00000000000000000000000000010100 d
b00000010011100101001100000100000 e
b00000000000000000000000000010100 f
b00000000000000000000000000011000 h
1i
b10010 j
b10011 k
b10011 l
1m
1n
b10011 o
b10010 p
b10011 q
b00000000000000000000000000000100 r
b00000000000000000000000000000100 s
b00000000000000000000000000001000 t
b00000000000000000000000000000100 u
b00000000000000000000000000000100 v
b010 w
b00000000000000000000000000001000 y
b00000000000000000000000000000100 z
b00000000000000000000000000000100 {
b00000000000000000000000000001000 }
b00000000000000000000000000000000 ""
b00000000000000000000000000000100 #"
b11111111111111111111111111111011 $"
b00000000000000000000000000001000 %"
0&"
b00000000000000000000000000000100 '"
b11111111111111111111111111111011 ("
b00000000000000000000000000000100 )"
0*"
b00000000000000000000000000000100 +"
b00000000000000000000000000000100 ,"
b00000000000000000000000000001000 -"
b000000000000000000000000000001000 /"
00"
b00000000000000000000000000000000 1"
b00000000000000000000000000000100 3"
b00000000000000000000000000000100 4"
b00000000000000000000000000001000 5"
b00000000000000000000000000000000 6"
b00000000000000000000000000001000 7"
b1001100000100000 8"
b11111111111111111001100000100000 9"
b00000000000000000000000000000100 ;"
b11111111111111111001100000100000 <"
b00000000000000000000000000000100 ="
b11111111111111111001100000100000 >"
b11111111111111100110000010000000 ?"
b11111111111111100110000010000000 @"
b00000000000000000000000000011000 A"
b11111111111111100110000010011000 B"
b00000000000000000000000000011000 D"
b11111111111111100110000010011000 E"
b00000000000000000000000000011000 F"
b00000000000000000000000000001000 H"
b00000000000000000000000000001000 J"
b00000000000000000000000000011000 L"
b00001001110010100110000010000000 M"
b00000000000000000000000000011000 N"
#220000000
0!
0'
0`
0m
